科目名: コンパイラ
課題: S2
番号: 6749
氏名: 番庄 智也
作成: 2018年6月14日

----------------------------------------

[課題 S2.1]
putcharを実装した。文字を取り出すときにも'x'という風に３文字読まないといけないことに驚いた。

----------------------------------------

[課題 S2.2]

aを表示することができた。

----- 処理結果 -----
$ ./vsm test22.vsm
a

----------------------------------------

[課題 S2.3]

数値と文字を表示できる。
数値と文字は別の関数を用意しないいけないことに驚いた。

----- 処理結果 -----
$ ./vsm test23.vsm
1997+5628

----------------------------------------

[課題 S2.4]

四則演算できるようになった。
四則演算は中置記法になっていて、優先順位が決まっているおかげで非常にプログラムがやりづらい。

----- 処理結果 -----
$ ./vsm test24.vsm
5
3

----------------------------------------

[課題 S2.5]

乗算の追加をした

----- 処理結果 -----
$ ./vsm test25.vsm
6
3
2
4
7

----------------------------------------

[課題 S1.6]

比較演算を実装した。
この文法だと、Javaのジェネリック型を実装することができない。
ただ、いわゆる数学の記法が可能なので、高校を卒業したレベルの人なら容易に理解が可能である。

----- 処理結果 -----
$ ./vsm test26.vsm
0
1
1

----------------------------------------

[課題 S2.7]

括弧を実装した。
括弧がさらにプログラムをややこしくする。

----- 処理結果 -----
$ ./vsm test27.vsm
10
2
3

----------------------------------------

[課題 S2.8]

getchar、getintを実装した。

----- 処理結果 -----
$ ./vsm test28.vsm
5
5
6
6
2
4
3
3

----------------------------------------

[課題 S1 の感想]

計算が徐々にできるようになっていっているので、少し面白い。
&&演算子や||演算子が実装されていないので比較演算子が並ぶ必要があるのはよくわかる。
